[gd_scene load_steps=2 format=3 uid="uid://vf5fe5k44vvq"]

[ext_resource type="Script" path="res://assets/map_templates/indicator.gd" id="1_3b5tg"]

[node name="Indicator" type="Node3D"]
script = ExtResource("1_3b5tg")

[node name="Label3d" type="Label3D" parent="."]
transform = Transform3D(1, 0, 0, 0, 1, 0, 0, 0, 1, 0, 0, 0.001)
no_depth_test = true
render_priority = 1
modulate = Color(0, 0, 0, 1)
font_size = 128
outline_size = 0

[node name="Sprite3d" type="Sprite3D" parent="."]
